<?xml version="1.0" encoding="UTF-8" standalone="no"?>
<!DOCTYPE svg PUBLIC "-//W3C//DTD SVG 1.1//EN" "http://www.w3.org/Graphics/SVG/1.1/DTD/svg11.dtd">
<svg xmlns:xl="http://www.w3.org/1999/xlink" xmlns="http://www.w3.org/2000/svg" xmlns:dc="http://purl.org/dc/elements/1.1/" version="1.1" viewBox="165 187 201 201" width="201" height="201">
  <defs/>
  <metadata> Produced by OmniGraffle 7.10.2 
    <dc:date>2019-07-07 17:09:04 +0000</dc:date>
  </metadata>
  <g id="Canvas_1" fill="none" stroke="none" stroke-dasharray="none" stroke-opacity="1" fill-opacity="1">
    <title>Canvas 1</title>
    <g id="Canvas_1: Layer 1">
      <title>Layer 1</title>
      <g id="Graphic_14">
        <path d="M 325.1342 367.5955 C 328.99868 364.71768 332.70254 361.52472 336.2106 358.01664 C 375.2632 318.96424 375.2632 255.64784 336.2106 216.59544 C 306.35352 186.7382 262.31365 179.708 225.77758 195.5048 L 237.88716 216.4792 C 265.1258 205.87637 297.24615 211.57197 319.24006 233.56598 C 348.92003 263.2458 348.92003 311.36627 319.24006 341.0461 C 317.24776 343.0384 315.17236 344.89698 313.02504 346.6218 Z" fill="#ff3e01"/>
      </g>
      <g id="Graphic_15">
        <path d="M 205.8658 206.71054 C 202.00132 209.58836 198.29746 212.78132 194.7894 216.2894 C 155.7368 255.3418 155.7368 318.6582 194.7894 357.7106 C 224.64648 387.56783 268.68635 394.59805 305.22242 378.80125 L 293.11284 357.82684 C 265.8742 368.42967 233.75385 362.73407 211.75994 340.74006 C 182.07997 311.06023 182.07997 262.93977 211.75994 233.25994 C 213.75224 231.26763 215.82764 229.40906 217.97496 227.68422 Z" fill="#6b7074"/>
      </g>
      <g id="Graphic_20">
        <path d="M 319.24006 233.25994 C 289.56023 203.57997 241.43977 203.57997 211.75994 233.25994 C 182.07997 262.93977 182.07997 311.06023 211.75994 340.74006 C 241.43977 370.42003 289.56023 370.42003 319.24006 340.74006 C 348.92003 311.06023 348.92003 262.93977 319.24006 233.25994 M 302.2695 250.2305 C 322.57686 270.53774 322.57686 303.46226 302.2695 323.7695 C 281.96226 344.07686 249.03774 344.07686 228.7305 323.7695 C 208.42314 303.46226 208.42314 270.53774 228.7305 250.2305 C 249.03774 229.92314 281.96226 229.92314 302.2695 250.2305" fill="white"/>
        <path d="M 319.24006 233.25994 C 289.56023 203.57997 241.43977 203.57997 211.75994 233.25994 C 182.07997 262.93977 182.07997 311.06023 211.75994 340.74006 C 241.43977 370.42003 289.56023 370.42003 319.24006 340.74006 C 348.92003 311.06023 348.92003 262.93977 319.24006 233.25994 M 302.2695 250.2305 C 322.57686 270.53774 322.57686 303.46226 302.2695 323.7695 C 281.96226 344.07686 249.03774 344.07686 228.7305 323.7695 C 208.42314 303.46226 208.42314 270.53774 228.7305 250.2305 C 249.03774 229.92314 281.96226 229.92314 302.2695 250.2305" stroke="#424242" stroke-linecap="round" stroke-linejoin="round" stroke-width="12"/>
      </g>
    </g>
  </g>
</svg>
